…
```r
asd_longer <- asd %>% 
  pivot_longer(-Taxonomy, names_to = "Condition", values_to = "Abundance")
asd_longer
```

```
## # A tibble: 337,140 x 3
##    Taxonomy                                            Condition Abundance
##    <chr>                                               <chr>         <dbl>
##  1 g__Faecalibacterium;s__Faecalibacterium prausnitzii A3             4988
##  2 g__Faecalibacterium;s__Faecalibacterium prausnitzii A5             5060
##  3 g__Faecalibacterium;s__Faecalibacterium prausnitzii A6             2905
##  4 g__Faecalibacterium;s__Faecalibacterium prausnitzii A9             5745
##  5 g__Faecalibacterium;s__Faecalibacterium prausnitzii A31            4822
##  6 g__Faecalibacterium;s__Faecalibacterium prausnitzii A51            3889
##  7 g__Faecalibacterium;s__Faecalibacterium prausnitzii A52            4646
##  8 g__Faecalibacterium;s__Faecalibacterium prausnitzii A53            6337
##  9 g__Faecalibacterium;s__Faecalibacterium prausnitzii A54            5064
## 10 g__Faecalibacterium;s__Faecalibacterium prausnitzii A59            6359
## # … with 337,130 more rows
```
##Removing "Unclassified" from data

```r
asd_longer_no_unclassified <- asd_longer %>% 
  filter(!str_detect(Taxonomy, "Unclassified"))
asd_longer_no_unclassified
```

```
## # A tibble: 279,720 x 3
##    Taxonomy                                            Condition Abundance
##    <chr>                                               <chr>         <dbl>
##  1 g__Faecalibacterium;s__Faecalibacterium prausnitzii A3             4988
##  2 g__Faecalibacterium;s__Faecalibacterium prausnitzii A5             5060
##  3 g__Faecalibacterium;s__Faecalibacterium prausnitzii A6             2905
##  4 g__Faecalibacterium;s__Faecalibacterium prausnitzii A9             5745
##  5 g__Faecalibacterium;s__Faecalibacterium prausnitzii A31            4822
##  6 g__Faecalibacterium;s__Faecalibacterium prausnitzii A51            3889
##  7 g__Faecalibacterium;s__Faecalibacterium prausnitzii A52            4646
##  8 g__Faecalibacterium;s__Faecalibacterium prausnitzii A53            6337
##  9 g__Faecalibacterium;s__Faecalibacterium prausnitzii A54            5064
## 10 g__Faecalibacterium;s__Faecalibacterium prausnitzii A59            6359
## # … with 279,710 more rows
```
…
```
## Warning: Expected 2 pieces. Additional pieces discarded in 108780 rows [121,
## 122, 123, 124, 125, 126, 127, 128, 129, 130, 131, 132, 133, 134, 135, 136, 137,
## 138, 139, 140, ...].
```

```r
asd_separate
```

```
## # A tibble: 279,720 x 5
##    Genus               Species             Strain      Condition Abundance
##    <chr>               <chr>               <chr>       <chr>         <dbl>
##  1 g__Faecalibacterium s__Faecalibacterium prausnitzii A3             4988
##  2 g__Faecalibacterium s__Faecalibacterium prausnitzii A5             5060
##  3 g__Faecalibacterium s__Faecalibacterium prausnitzii A6             2905
##  4 g__Faecalibacterium s__Faecalibacterium prausnitzii A9             5745
##  5 g__Faecalibacterium s__Faecalibacterium prausnitzii A31            4822
##  6 g__Faecalibacterium s__Faecalibacterium prausnitzii A51            3889
##  7 g__Faecalibacterium s__Faecalibacterium prausnitzii A52            4646
##  8 g__Faecalibacterium s__Faecalibacterium prausnitzii A53            6337
##  9 g__Faecalibacterium s__Faecalibacterium prausnitzii A54            5064
## 10 g__Faecalibacterium s__Faecalibacterium prausnitzii A59            6359
## # … with 279,710 more rows
```



```r
asd_separate2 <- asd_separate %>% 
  separate(Genus, into = c("remove", "Genus"), sep = "__") %>% 
  separate(Species, into = c("remove_more", "Species"), sep = "__")
asd_separate2
```

```
## # A tibble: 279,720 x 7
##    remove Genus         remove_more Species        Strain    Condition Abundance
##    <chr>  <chr>         <chr>       <chr>          <chr>     <chr>         <dbl>
##  1 g      Faecalibacte… s           Faecalibacter… prausnit… A3             4988
##  2 g      Faecalibacte… s           Faecalibacter… prausnit… A5             5060
##  3 g      Faecalibacte… s           Faecalibacter… prausnit… A6             2905
##  4 g      Faecalibacte… s           Faecalibacter… prausnit… A9             5745
##  5 g      Faecalibacte… s           Faecalibacter… prausnit… A31            4822
##  6 g      Faecalibacte… s           Faecalibacter… prausnit… A51            3889
##  7 g      Faecalibacte… s           Faecalibacter… prausnit… A52            4646
##  8 g      Faecalibacte… s           Faecalibacter… prausnit… A53            6337
##  9 g      Faecalibacte… s           Faecalibacter… prausnit… A54            5064
## 10 g      Faecalibacte… s           Faecalibacter… prausnit… A59            6359
## # … with 279,710 more rows
```


```r
asd_hopefully_tidy <- asd_separate2 %>%
  select(-remove, -remove_more)
asd_hopefully_tidy
```

```
## # A tibble: 279,720 x 5
##    Genus            Species          Strain      Condition Abundance
##    <chr>            <chr>            <chr>       <chr>         <dbl>
##  1 Faecalibacterium Faecalibacterium prausnitzii A3             4988
##  2 Faecalibacterium Faecalibacterium prausnitzii A5             5060
##  3 Faecalibacterium Faecalibacterium prausnitzii A6             2905
##  4 Faecalibacterium Faecalibacterium prausnitzii A9             5745
##  5 Faecalibacterium Faecalibacterium prausnitzii A31            4822
##  6 Faecalibacterium Faecalibacterium prausnitzii A51            3889
##  7 Faecalibacterium Faecalibacterium prausnitzii A52            4646
##  8 Faecalibacterium Faecalibacterium prausnitzii A53            6337
##  9 Faecalibacterium Faecalibacterium prausnitzii A54            5064
## 10 Faecalibacterium Faecalibacterium prausnitzii A59            6359
## # … with 279,710 more rows
```
…
