…
```r
demographics2 <- demographics %>% 
  clean_names() %>% 
  filter(metagenomic_sequencing == "Yes") %>% 
  select(sample_id, gender, age)
demographics2
```

```
## # A tibble: 60 x 3
##    sample_id gender   age
##    <chr>     <chr>  <dbl>
##  1 A101      Male       3
##  2 A109      Male       4
##  3 A113      Male       6
##  4 A114      Male       4
##  5 A115      Male       5
##  6 A142      Male       7
##  7 A144      Male       9
##  8 A149      Male       5
##  9 A164      Male       8
## 10 A165      Male       7
## # … with 50 more rows
```
…
