…
```r
asd
```

```
## # A tibble: 5,620 x 1
##    `ASD meta abundance`                               
##    <chr>                                              
##  1 Taxonomy                                           
##  2 g__Faecalibacterium;s__Faecalibacterium prausnitzii
##  3 g__Hungatella;s__Hungatella hathewayi              
##  4 g__Clostridium;s__uncultured Clostridium sp.       
##  5 g__Butyricimonas;s__Butyricimonas virosa           
##  6 g__Alistipes;s__Alistipes indistinctus             
##  7 g__Unclassified;s__Firmicutes bacterium CAG:176    
##  8 g__Clostridium;s__Clostridium sp. CAG:7            
##  9 g__Unclassified;s__Firmicutes bacterium CAG:882    
## 10 g__Lachnoclostridium;s__[Clostridium] asparagiforme
## # … with 5,610 more rows
```
…
