…
#### pivoting longer and taking out unclassified data

```r
c_ref_asd_microbiome_longer <- c_ref_asd_microbiome %>% 
  pivot_longer(-taxonomy, names_to = "condition", values_to = "abundance")%>% 
  filter(str_detect(taxonomy, "Unclassified") == FALSE)
c_ref_asd_microbiome_longer
```

```
## # A tibble: 279,720 x 3
##    taxonomy                                            condition abundance
##    <chr>                                               <chr>         <dbl>
##  1 g__Faecalibacterium;s__Faecalibacterium prausnitzii a3             4988
##  2 g__Faecalibacterium;s__Faecalibacterium prausnitzii a5             5060
##  3 g__Faecalibacterium;s__Faecalibacterium prausnitzii a6             2905
##  4 g__Faecalibacterium;s__Faecalibacterium prausnitzii a9             5745
##  5 g__Faecalibacterium;s__Faecalibacterium prausnitzii a31            4822
##  6 g__Faecalibacterium;s__Faecalibacterium prausnitzii a51            3889
##  7 g__Faecalibacterium;s__Faecalibacterium prausnitzii a52            4646
##  8 g__Faecalibacterium;s__Faecalibacterium prausnitzii a53            6337
##  9 g__Faecalibacterium;s__Faecalibacterium prausnitzii a54            5064
## 10 g__Faecalibacterium;s__Faecalibacterium prausnitzii a59            6359
## # … with 279,710 more rows
```
…
```
## Warning: Expected 2 pieces. Missing pieces filled with `NA` in 95580 rows [301,
## 302, 303, 304, 305, 306, 307, 308, 309, 310, 311, 312, 313, 314, 315, 316, 317,
## 318, 319, 320, ...].
```

```r
c_ref_asd_microbiome_tidy
```

```
## # A tibble: 279,720 x 8
##    trash genus      extra_genus   species  strain condition patient_id abundance
##    <chr> <chr>      <chr>         <chr>    <chr>  <chr>     <chr>          <dbl>
##  1 g     Faecaliba… Faecalibacte… prausni… <NA>   a         3               4988
##  2 g     Faecaliba… Faecalibacte… prausni… <NA>   a         5               5060
##  3 g     Faecaliba… Faecalibacte… prausni… <NA>   a         6               2905
##  4 g     Faecaliba… Faecalibacte… prausni… <NA>   a         9               5745
##  5 g     Faecaliba… Faecalibacte… prausni… <NA>   a         31              4822
##  6 g     Faecaliba… Faecalibacte… prausni… <NA>   a         51              3889
##  7 g     Faecaliba… Faecalibacte… prausni… <NA>   a         52              4646
##  8 g     Faecaliba… Faecalibacte… prausni… <NA>   a         53              6337
##  9 g     Faecaliba… Faecalibacte… prausni… <NA>   a         54              5064
## 10 g     Faecaliba… Faecalibacte… prausni… <NA>   a         59              6359
## # … with 279,710 more rows
```


#### getting rid of extra genus/g and making a culture column


```r
c_ref_asd_microbiome_tidy3 <- c_ref_asd_microbiome_tidy %>% 
  mutate(cultured = ifelse(extra_genus == "uncultured", FALSE, TRUE)) %>% 
  select(- extra_genus, - trash)
c_ref_asd_microbiome_tidy3
```

```
## # A tibble: 279,720 x 7
##    genus            species     strain condition patient_id abundance cultured
##    <chr>            <chr>       <chr>  <chr>     <chr>          <dbl> <lgl>   
##  1 Faecalibacterium prausnitzii <NA>   a         3               4988 TRUE    
##  2 Faecalibacterium prausnitzii <NA>   a         5               5060 TRUE    
##  3 Faecalibacterium prausnitzii <NA>   a         6               2905 TRUE    
##  4 Faecalibacterium prausnitzii <NA>   a         9               5745 TRUE    
##  5 Faecalibacterium prausnitzii <NA>   a         31              4822 TRUE    
##  6 Faecalibacterium prausnitzii <NA>   a         51              3889 TRUE    
##  7 Faecalibacterium prausnitzii <NA>   a         52              4646 TRUE    
##  8 Faecalibacterium prausnitzii <NA>   a         53              6337 TRUE    
##  9 Faecalibacterium prausnitzii <NA>   a         54              5064 TRUE    
## 10 Faecalibacterium prausnitzii <NA>   a         59              6359 TRUE    
## # … with 279,710 more rows
```
…
```r
c_ref_asd_microbiome_tidy4 <- c_ref_asd_microbiome_tidy3 %>% 
  mutate(species = ifelse(species == genus, NA, species))
view(c_ref_asd_microbiome_tidy4)
```


```r
c_ref_asd_microbiome_tidy4 %>% 
  filter(species == "copri")
```

```
## # A tibble: 120 x 7
##    genus      species strain condition patient_id abundance cultured
##    <chr>      <chr>   <chr>  <chr>     <chr>          <dbl> <lgl>   
##  1 Prevotella copri   <NA>   a         3                 34 TRUE    
##  2 Prevotella copri   <NA>   a         5                 92 TRUE    
##  3 Prevotella copri   <NA>   a         6                 28 TRUE    
##  4 Prevotella copri   <NA>   a         9                 25 TRUE    
##  5 Prevotella copri   <NA>   a         31              1030 TRUE    
##  6 Prevotella copri   <NA>   a         51               561 TRUE    
##  7 Prevotella copri   <NA>   a         52               541 TRUE    
##  8 Prevotella copri   <NA>   a         53              1295 TRUE    
##  9 Prevotella copri   <NA>   a         54              1003 TRUE    
## 10 Prevotella copri   <NA>   a         59                37 TRUE    
## # … with 110 more rows
```
…
