…
```r
asd_tidy <- asd %>% 
  pivot_longer(-Taxonomy, 
               names_to = "subject", 
               values_to = "abundance") %>% 
  separate(subject, into = c("group", "number"), sep = 1)
asd_tidy
```

```
## # A tibble: 337,140 x 4
##    Taxonomy                                            group number abundance
##    <chr>                                               <chr> <chr>      <dbl>
##  1 g__Faecalibacterium;s__Faecalibacterium prausnitzii A     3           4988
##  2 g__Faecalibacterium;s__Faecalibacterium prausnitzii A     5           5060
##  3 g__Faecalibacterium;s__Faecalibacterium prausnitzii A     6           2905
##  4 g__Faecalibacterium;s__Faecalibacterium prausnitzii A     9           5745
##  5 g__Faecalibacterium;s__Faecalibacterium prausnitzii A     31          4822
##  6 g__Faecalibacterium;s__Faecalibacterium prausnitzii A     51          3889
##  7 g__Faecalibacterium;s__Faecalibacterium prausnitzii A     52          4646
##  8 g__Faecalibacterium;s__Faecalibacterium prausnitzii A     53          6337
##  9 g__Faecalibacterium;s__Faecalibacterium prausnitzii A     54          5064
## 10 g__Faecalibacterium;s__Faecalibacterium prausnitzii A     59          6359
## # … with 337,130 more rows
```


```r
asd_tidy2 <- asd_tidy %>% 
  filter(str_detect(Taxonomy, "Unclassified") == FALSE)
asd_tidy2
```

```
## # A tibble: 279,720 x 4
##    Taxonomy                                            group number abundance
##    <chr>                                               <chr> <chr>      <dbl>
##  1 g__Faecalibacterium;s__Faecalibacterium prausnitzii A     3           4988
##  2 g__Faecalibacterium;s__Faecalibacterium prausnitzii A     5           5060
##  3 g__Faecalibacterium;s__Faecalibacterium prausnitzii A     6           2905
##  4 g__Faecalibacterium;s__Faecalibacterium prausnitzii A     9           5745
##  5 g__Faecalibacterium;s__Faecalibacterium prausnitzii A     31          4822
##  6 g__Faecalibacterium;s__Faecalibacterium prausnitzii A     51          3889
##  7 g__Faecalibacterium;s__Faecalibacterium prausnitzii A     52          4646
##  8 g__Faecalibacterium;s__Faecalibacterium prausnitzii A     53          6337
##  9 g__Faecalibacterium;s__Faecalibacterium prausnitzii A     54          5064
## 10 g__Faecalibacterium;s__Faecalibacterium prausnitzii A     59          6359
## # … with 279,710 more rows
```
…
```r
asd_tidy4 <-
  asd_tidy3 %>% 
  separate(genus, into = c("g", "genus"), sep = "__") %>% 
  separate(species, into = c("s", "species"), sep = "__") %>% 
  select( -g, -s) %>% 
  rename(id = "number")
asd_tidy4
```

```
## # A tibble: 279,720 x 5
##    genus            species                      group id    abundance
##    <chr>            <chr>                        <chr> <chr>     <dbl>
##  1 Faecalibacterium Faecalibacterium prausnitzii A     3          4988
##  2 Faecalibacterium Faecalibacterium prausnitzii A     5          5060
##  3 Faecalibacterium Faecalibacterium prausnitzii A     6          2905
##  4 Faecalibacterium Faecalibacterium prausnitzii A     9          5745
##  5 Faecalibacterium Faecalibacterium prausnitzii A     31         4822
##  6 Faecalibacterium Faecalibacterium prausnitzii A     51         3889
##  7 Faecalibacterium Faecalibacterium prausnitzii A     52         4646
##  8 Faecalibacterium Faecalibacterium prausnitzii A     53         6337
##  9 Faecalibacterium Faecalibacterium prausnitzii A     54         5064
## 10 Faecalibacterium Faecalibacterium prausnitzii A     59         6359
## # … with 279,710 more rows
```
…
```r
asd_group <-
  asd_tidy4 %>% 
  filter(group == "B")
asd_group
```

```
## # A tibble: 139,860 x 5
##    genus            species                      group id    abundance
##    <fct>            <fct>                        <chr> <fct>     <dbl>
##  1 Faecalibacterium Faecalibacterium prausnitzii B     1          4269
##  2 Faecalibacterium Faecalibacterium prausnitzii B     2          4397
##  3 Faecalibacterium Faecalibacterium prausnitzii B     3          4499
##  4 Faecalibacterium Faecalibacterium prausnitzii B     5          6126
##  5 Faecalibacterium Faecalibacterium prausnitzii B     6          7020
##  6 Faecalibacterium Faecalibacterium prausnitzii B     7          5404
##  7 Faecalibacterium Faecalibacterium prausnitzii B     8          4404
##  8 Faecalibacterium Faecalibacterium prausnitzii B     13         5811
##  9 Faecalibacterium Faecalibacterium prausnitzii B     14         3360
## 10 Faecalibacterium Faecalibacterium prausnitzii B     28         4141
## # … with 139,850 more rows
```


```r
td_group <-
  asd_tidy4 %>% 
  filter(group == "A")
td_group
```

```
## # A tibble: 139,860 x 5
##    genus            species                      group id    abundance
##    <fct>            <fct>                        <chr> <fct>     <dbl>
##  1 Faecalibacterium Faecalibacterium prausnitzii A     3          4988
##  2 Faecalibacterium Faecalibacterium prausnitzii A     5          5060
##  3 Faecalibacterium Faecalibacterium prausnitzii A     6          2905
##  4 Faecalibacterium Faecalibacterium prausnitzii A     9          5745
##  5 Faecalibacterium Faecalibacterium prausnitzii A     31         4822
##  6 Faecalibacterium Faecalibacterium prausnitzii A     51         3889
##  7 Faecalibacterium Faecalibacterium prausnitzii A     52         4646
##  8 Faecalibacterium Faecalibacterium prausnitzii A     53         6337
##  9 Faecalibacterium Faecalibacterium prausnitzii A     54         5064
## 10 Faecalibacterium Faecalibacterium prausnitzii A     59         6359
## # … with 139,850 more rows
```
…
