…
```r
asd_venn <-
  asd_tidier %>% 
  rename(genus_asd = "genus") %>% 
  filter(abundance != 0)
```


```r
both_venn <- full_join(td_venn, asd_venn, by = "patient_id")
both_venn
```

```
## # A tibble: 19,470,923 x 8
##    genus_td   patient_id genus_asd  species  strain condition abundance cultured
##    <chr>           <dbl> <chr>      <chr>    <chr>  <chr>         <dbl> <lgl>   
##  1 Faecaliba…          3 Faecaliba… prausni… <NA>   b              4499 TRUE    
##  2 Faecaliba…          3 Hungatella hathewa… <NA>   b              2325 TRUE    
##  3 Faecaliba…          3 Clostridi… <NA>     <NA>   b              3842 FALSE   
##  4 Faecaliba…          3 Butyricim… virosa   <NA>   b               703 TRUE    
##  5 Faecaliba…          3 Alistipes  indisti… <NA>   b               819 TRUE    
##  6 Faecaliba…          3 Clostridi… <NA>     CAG:7  b              1504 TRUE    
##  7 Faecaliba…          3 Lachnoclo… asparag… <NA>   b              2208 TRUE    
##  8 Faecaliba…          3 Butyricic… <NA>     <NA>   b              2209 FALSE   
##  9 Faecaliba…          3 Oscilliba… <NA>     ER4    b               193 TRUE    
## 10 Faecaliba…          3 Desulfovi… piger    <NA>   b                 3 TRUE    
## # … with 19,470,913 more rows
```
…
