…
### Joining TD and ASD data:

```r
both_venn <- full_join(td_venn, asd_venn, by = "patient_id")
both_venn
```

```
## # A tibble: 19,470,923 x 8
##    genus_td   patient_id genus_asd  species  strain condition abundance cultured
##    <chr>           <dbl> <chr>      <chr>    <chr>  <chr>         <dbl> <lgl>   
##  1 Faecaliba…          3 Faecaliba… prausni… <NA>   b              4499 TRUE    
##  2 Faecaliba…          3 Hungatella hathewa… <NA>   b              2325 TRUE    
##  3 Faecaliba…          3 Clostridi… <NA>     <NA>   b              3842 FALSE   
##  4 Faecaliba…          3 Butyricim… virosa   <NA>   b               703 TRUE    
##  5 Faecaliba…          3 Alistipes  indisti… <NA>   b               819 TRUE    
##  6 Faecaliba…          3 Clostridi… <NA>     CAG:7  b              1504 TRUE    
##  7 Faecaliba…          3 Lachnoclo… asparag… <NA>   b              2208 TRUE    
##  8 Faecaliba…          3 Butyricic… <NA>     <NA>   b              2209 FALSE   
##  9 Faecaliba…          3 Oscilliba… <NA>     ER4    b               193 TRUE    
## 10 Faecaliba…          3 Desulfovi… piger    <NA>   b                 3 TRUE    
## # … with 19,470,913 more rows
```
…
```
## (polygon[GRID.polygon.59], polygon[GRID.polygon.60], polygon[GRID.polygon.61], polygon[GRID.polygon.62], text[GRID.text.63], text[GRID.text.64], lines[GRID.lines.65], text[GRID.text.66], text[GRID.text.67], text[GRID.text.68])
```


### Preparation of data for Venn Diagrams that compares genera composition between gender

```r
demo_venn
```

```
## # A tibble: 95,208 x 2
##    genus            gender
##    <chr>            <chr> 
##  1 Faecalibacterium Female
##  2 Faecalibacterium Male  
##  3 Faecalibacterium Female
##  4 Faecalibacterium Male  
##  5 Faecalibacterium Male  
##  6 Faecalibacterium Male  
##  7 Faecalibacterium Male  
##  8 Faecalibacterium Male  
##  9 Faecalibacterium Male  
## 10 Faecalibacterium Male  
## # … with 95,198 more rows
```
### Dividing genera by gender

```r
demo_venn_f <- 
  demo_venn %>% 
  filter(gender == "Female") %>% 
  rename(genus_f = "genus")
demo_venn_f
```

```
## # A tibble: 5,091 x 2
##    genus_f          gender
##    <chr>            <chr> 
##  1 Faecalibacterium Female
##  2 Faecalibacterium Female
##  3 Faecalibacterium Female
##  4 Faecalibacterium Female
##  5 Hungatella       Female
##  6 Hungatella       Female
##  7 Hungatella       Female
##  8 Hungatella       Female
##  9 Clostridium      Female
## 10 Clostridium      Female
## # … with 5,081 more rows
```

```r
demo_venn_m <-
  demo_venn %>% 
  filter(gender == "Male") %>% 
  rename(genus_m = "genus")
demo_venn_m
```

```
## # A tibble: 90,117 x 2
##    genus_m          gender
##    <chr>            <chr> 
##  1 Faecalibacterium Male  
##  2 Faecalibacterium Male  
##  3 Faecalibacterium Male  
##  4 Faecalibacterium Male  
##  5 Faecalibacterium Male  
##  6 Faecalibacterium Male  
##  7 Faecalibacterium Male  
##  8 Faecalibacterium Male  
##  9 Faecalibacterium Male  
## 10 Faecalibacterium Male  
## # … with 90,107 more rows
```
…
